{
     "id": "12345678",
     "token": "q54l9qd907m6iqqqlcrm5tpbjjsnfo47vsm59gqrfnd2rqefk9hu",
     "status": "APPROVED",
     "created": "2015-07-14T10:08:14.123Z",
     "totalAmount": {  
        "amount": "10.00",
        "currency": "AUD"
     },
     "merchantReference": "merchantOrder-1234",
      "events": [
          {
              "created": "2016-06-21T10:00:11Z",
              "id": "2136442160",
              "type":"AUTHORISE"
          },
          {
              "created": "2016-06-22T12:00:01Z",
              "id": "6558959651",
              "type":"CAPTURE"
          }
      ],
     "refunds": [
        {
            "id": "67890123",
            "refundedAt": "2015-07-10T15:01:14.123Z",
            "merchantReference": "refundId-1234",
            "amount": {  
                "amount": "10.00",
                "currency": "AUD"
            }
         }
     ],
     "orderDetails": {
          "consumer": {  
             "phoneNumber": "0422042042",
             "givenNames": "Joe",
             "surname": "Consumer",
             "email": "test@afterpay.com.au"
          },
         "billing": {  
             "name": "Joe Consumer",
             "line1": "Unit 1 16 Floor",
             "line2": "380 LaTrobe Street",
             "suburb": "Melbourne",
             "state": "VIC",
             "postcode": "3000",
             "countryCode": "AU",
             "phoneNumber": "0400892011"
         },
         "shipping": {  
             "name": "Joe Consumer",
             "line1": "Unit 1 16 Floor",
             "line2": "380 LaTrobe Street",
             "suburb": "Melbourne",
             "state": "VIC",
             "postcode": "3000",
             "countryCode": "AU",
             "phoneNumber": "0400892011"
         },
         "items":[  
            {
                "name": "widget",
                "sku": "123412234",
                "quantity": 1,
                "price": {
                    "amount": "10.00",
                    "currency": "AUD"
                }
            }
         ]
     }
 }